{
  "$schema": "https://docs.renovatebot.com/renovate-schema.json",
  "extends": [
    "config:recommended"
  ],
  "packageRules": [
    {
      "matchPackageNames": ["renovate-bot/renovate-runner"],
      "groupName": "renovate",
      "schedule": ["before 4am on monday"]
    }
  ]
}
